[{"name":"علی","lastName":"ستوده","email":"alisotudehsjn@yahoo.com","age":"22","code":"1362776971"}][
  {
    "name": "dds",
    "lastName": "ستوده",
    "email": "alisotudehsjn2@gmail.com",
    "age": "22",
    "code": "1234567890"
  }
][
  {
    "name": "علی",
    "lastName": "ستوده",
    "email": "alisotudehsjn@yahoo.com",
    "age": "22",
    "code": "1234567890"
  }
]